<?xml version="1.0" encoding="UTF-8"?>
<session version="1.0">
<refactoring comment="Delete resource &apos;OTP-system-By-Twilio-inSpringBoot-7&apos;" deleteContents="true" description="Delete resource &apos;OTP-system-By-Twilio-inSpringBoot-7&apos;" element1="/OTP-system-By-Twilio-inSpringBoot-7" flags="7" id="org.eclipse.ltk.core.refactoring.delete.resources" resources="1" stamp="1543695731287"/>
</session>