INDEX VERSION 1.4+D:\Spring Boot Projects-WorkSpace\.metadata\.plugins\org.eclipse.wst.jsdt.core\indexes
2959347575.index
3129501112.index
252769971.index
2560975918.index
141901690.index
2099881728.index
